{
    "/js/app.js": "/js/app.js",
    "/css/app.css": "/css/app.css",
    "/css/master.css": "/css/master.css",
    "/css/home.css": "/css/home.css",
    "/css/about.css": "/css/about.css",
    "/css/clients.css": "/css/clients.css",
    "/css/contactus.css": "/css/contactus.css",
    "/css/construction.css": "/css/construction.css",
    "/css/factory.css": "/css/factory.css",
    "/css/getinfo.css": "/css/getinfo.css",
    "/css/machinery.css": "/css/machinery.css",
    "/css/news.css": "/css/news.css",
    "/css/newsdetail.css": "/css/newsdetail.css",
    "/css/notfound.css": "/css/notfound.css",
    "/css/ourapproach.css": "/css/ourapproach.css",
    "/css/search.css": "/css/search.css",
    "/css/services.css": "/css/services.css",
    "/css/servicesdetail.css": "/css/servicesdetail.css",
    "/js/manifest.js": "/js/manifest.js",
    "/js/vendor.js": "/js/vendor.js"
}
